{
  "type": "minecraft:block",
  "pools": [
    {
      "rolls": 1,
      "entries": [
        {
          "type": "minecraft:item",
          "name": "mcimprovements:copper_ore"
        }
      ]
    }
  ]
}
