{
  "type": "minecraft:block",
  "pools": [
    {
      "name": "pool1",
      "rolls": 1,
      "entries": [
        {
          "type": "minecraft:item",
          "name": "mcimprovements:opal_block"
        }
      ],
      "conditions": [
        {
          "condition": "minecraft:survives_explosion"
        }
      ]
    }
  ]
}
