{
    "type": "minecraft:crafting_shaped",
    "pattern": [
      "   ",
      "O O",
      "O O"
    ],
    "key": {
      "O": { "item": "mcimprovements:opal" }
    },
    "result": { "item": "mcimprovements:opal_boots" },
    "count": 1
}
