{
    "type": "minecraft:crafting_shaped",
    "pattern": [
      " RR",
      " SR",
      " S "
    ],
    "key": {
      "R": { "item": "minecraft:redstone_block" },
      "S": { "item": "minecraft:stick" }
    },
    "result": { "item": "mcimprovements:redstone_axe" },
    "count": 1
}
